<svg xmlns="http://www.w3.org/2000/svg" width="30.381" height="24.684" viewBox="0 0 30.381 24.684">
  <g id="Group_1863" data-name="Group 1863" transform="translate(6560.677 1932.956)">
    <path id="Path_187" data-name="Path 187" d="M0,26.018a2.848,2.848,0,0,0,2.848,2.848H27.533a2.848,2.848,0,0,0,2.848-2.848V14.625h-1.9V26.018a.949.949,0,0,1-.949.949H2.848a.949.949,0,0,1-.949-.949V14.625H0Z" transform="translate(-6560.677 -1937.138)" fill="#cd1453" fill-rule="evenodd"/>
    <path id="Path_188" data-name="Path 188" d="M0,8.9A2.848,2.848,0,0,1,2.848,6.048H27.533A2.848,2.848,0,0,1,30.381,8.9v4.527L15.924,17.277a2.848,2.848,0,0,1-1.466,0L0,13.423Zm2.848-.949A.949.949,0,0,0,1.9,8.9v3.068l13.047,3.479a.949.949,0,0,0,.49,0l13.046-3.479V8.9a.949.949,0,0,0-.949-.949ZM9.494,5.1A2.848,2.848,0,0,1,12.342,2.25h5.7A2.848,2.848,0,0,1,20.887,5.1v.949h-1.9V5.1a.949.949,0,0,0-.949-.949h-5.7a.949.949,0,0,0-.949.949v.949h-1.9Z" transform="translate(-6560.677 -1935.206)" fill="#cd1453" fill-rule="evenodd"/>
  </g>
</svg>
