<svg xmlns="http://www.w3.org/2000/svg" width="25.788" height="30.086" viewBox="0 0 25.788 30.086">
  <g id="Group_1430" data-name="Group 1430" transform="translate(6185.399 2032)">
    <path id="Path_189" data-name="Path 189" d="M15.548,18.331l-2.783-2.783L11.25,17.063l4.3,4.3,8.6-8.6L22.629,11.25Z" transform="translate(-6190.203 -2034.654)" fill="#cd1453"/>
    <path id="Path_190" data-name="Path 190" d="M17.394,32.336,10.758,28.8A11.8,11.8,0,0,1,4.5,18.367V4.4A2.151,2.151,0,0,1,6.649,2.25h21.49A2.151,2.151,0,0,1,30.288,4.4V18.367A11.8,11.8,0,0,1,24.03,28.8ZM6.649,4.4V18.367A9.654,9.654,0,0,0,11.77,26.9l5.624,3,5.624-3a9.654,9.654,0,0,0,5.121-8.535V4.4Z" transform="translate(-6189.899 -2034.25)" fill="#cd1453"/>
  </g>
</svg>
