<svg xmlns="http://www.w3.org/2000/svg" width="30.382" height="30.382" viewBox="0 0 30.382 30.382">
  <g id="Group_1432" data-name="Group 1432" transform="translate(6375.205 1936.286)">
    <path id="Path_180" data-name="Path 180" d="M0,0H1.9V30.382H0ZM1.9,28.483H30.382v1.9H1.9Z" transform="translate(-6375.205 -1936.286)" fill="#cd1453"/>
    <path id="Path_181" data-name="Path 181" d="M28.253,9.483,20,19.809l-5.774-5.778L7.3,20.956,5.953,19.611l8.268-8.266,5.619,5.616L26.771,8.3l1.483,1.185Z" transform="translate(-6376.134 -1937.581)" fill="#cd1453" fill-rule="evenodd"/>
    <path id="Path_182" data-name="Path 182" d="M22.5,7.7a.949.949,0,0,1,.949-.949h7.6a.949.949,0,0,1,.949.949v7.6a.949.949,0,1,1-1.9,0V8.649H23.449A.949.949,0,0,1,22.5,7.7Z" transform="translate(-6378.716 -1937.34)" fill="#cd1453" fill-rule="evenodd"/>
  </g>
</svg>
